{
  "kind": "collectionType",
  "collectionName": "regions",
  "info": {
    "name": "Region",
    "description": ""
  },
  "options": {
    "increments": true,
    "timestamps": true,
    "draftAndPublish": true
  },
  "attributes": {
    "name_nb": {
      "type": "string",
      "required": true,
      "unique": true
    },
    "name_en": {
      "type": "string",
      "required": true,
      "unique": true
    },
    "associations": {
      "via": "region",
      "collection": "association"
    }
  }
}
